%YAML 1.1
%TAG !u! tag:unity3d.com,2011:
--- !u!29 &1
SceneSettings:
  m_ObjectHideFlags: 0
  m_PVSData: 
  m_PVSObjectsArray: []
  m_PVSPortalsArray: []
  m_OcclusionBakeSettings:
    smallestOccluder: 5
    smallestHole: .25
    backfaceThreshold: 100
--- !u!104 &2
RenderSettings:
  m_Fog: 0
  m_FogColor: {r: .5, g: .5, b: .5, a: 1}
  m_FogMode: 3
  m_FogDensity: .00999999978
  m_LinearFogStart: 0
  m_LinearFogEnd: 300
  m_AmbientLight: {r: .200000003, g: .200000003, b: .200000003, a: 1}
  m_SkyboxMaterial: {fileID: 0}
  m_HaloStrength: .5
  m_FlareStrength: 1
  m_FlareFadeSpeed: 3
  m_HaloTexture: {fileID: 0}
  m_SpotCookie: {fileID: 0}
  m_ObjectHideFlags: 0
--- !u!127 &3
LevelGameManager:
  m_ObjectHideFlags: 0
--- !u!157 &4
LightmapSettings:
  m_ObjectHideFlags: 0
  m_LightProbes: {fileID: 0}
  m_Lightmaps: []
  m_LightmapsMode: 1
  m_BakedColorSpace: 0
  m_UseDualLightmapsInForward: 0
  m_LightmapEditorSettings:
    m_Resolution: 50
    m_LastUsedResolution: 0
    m_TextureWidth: 1024
    m_TextureHeight: 1024
    m_BounceBoost: 1
    m_BounceIntensity: 1
    m_SkyLightColor: {r: .860000014, g: .930000007, b: 1, a: 1}
    m_SkyLightIntensity: 0
    m_Quality: 0
    m_Bounces: 1
    m_FinalGatherRays: 1000
    m_FinalGatherContrastThreshold: .0500000007
    m_FinalGatherGradientThreshold: 0
    m_FinalGatherInterpolationPoints: 15
    m_AOAmount: 0
    m_AOMaxDistance: .100000001
    m_AOContrast: 1
    m_LODSurfaceMappingDistance: 1
    m_Padding: 0
    m_TextureCompression: 0
    m_LockAtlas: 0
--- !u!196 &5
NavMeshSettings:
  m_ObjectHideFlags: 0
  m_BuildSettings:
    agentRadius: .5
    agentHeight: 2
    agentSlope: 45
    agentClimb: .400000006
    ledgeDropHeight: 0
    maxJumpAcrossDistance: 0
    accuratePlacement: 0
    minRegionArea: 2
    widthInaccuracy: 16.666666
    heightInaccuracy: 10
  m_NavMesh: {fileID: 0}
--- !u!1 &39126808
GameObject:
  m_ObjectHideFlags: 0
  m_PrefabParentObject: {fileID: 100096, guid: 130cac6b96af6214296215324b5da188, type: 3}
  m_PrefabInternal: {fileID: 1275770332}
  serializedVersion: 4
  m_Component:
  - 4: {fileID: 39126809}
  m_Layer: 0
  m_Name: Sheya
  m_TagString: Untagged
  m_Icon: {fileID: 0}
  m_NavMeshLayer: 0
  m_StaticEditorFlags: 0
  m_IsActive: 1
--- !u!4 &39126809
Transform:
  m_ObjectHideFlags: 0
  m_PrefabParentObject: {fileID: 400096, guid: 130cac6b96af6214296215324b5da188, type: 3}
  m_PrefabInternal: {fileID: 1275770332}
  m_GameObject: {fileID: 39126808}
  m_LocalRotation: {x: .977863431, y: .000276101578, z: .209244072, w: 6.42360537e-05}
  m_LocalPosition: {x: -1.79097605, y: 1.35263917e-07, z: -1.30385152e-08}
  m_LocalScale: {x: .999999881, y: 1.00000024, z: 1}
  m_Children:
  - {fileID: 1833461981}
  m_Father: {fileID: 439255191}
  m_RootOrder: 9
--- !u!1 &53441763
GameObject:
  m_ObjectHideFlags: 0
  m_PrefabParentObject: {fileID: 100072, guid: 130cac6b96af6214296215324b5da188, type: 3}
  m_PrefabInternal: {fileID: 1275770332}
  serializedVersion: 4
  m_Component:
  - 4: {fileID: 53441764}
  m_Layer: 0
  m_Name: nogaC_003_L
  m_TagString: Untagged
  m_Icon: {fileID: 0}
  m_NavMeshLayer: 0
  m_StaticEditorFlags: 0
  m_IsActive: 1
--- !u!4 &53441764
Transform:
  m_ObjectHideFlags: 0
  m_PrefabParentObject: {fileID: 400072, guid: 130cac6b96af6214296215324b5da188, type: 3}
  m_PrefabInternal: {fileID: 1275770332}
  m_GameObject: {fileID: 53441763}
  m_LocalRotation: {x: .24690403, y: .146204397, z: -.0835634097, w: .954295456}
  m_LocalPosition: {x: -.399152517, y: 6.28999786e-08, z: 2.08616257e-07}
  m_LocalScale: {x: .999999881, y: .99999994, z: .999999821}
  m_Children:
  - {fileID: 986794078}
  m_Father: {fileID: 1086872144}
  m_RootOrder: 0
--- !u!1 &67438155
GameObject:
  m_ObjectHideFlags: 0
  m_PrefabParentObject: {fileID: 100074, guid: 130cac6b96af6214296215324b5da188, type: 3}
  m_PrefabInternal: {fileID: 1275770332}
  serializedVersion: 4
  m_Component:
  - 4: {fileID: 67438156}
  m_Layer: 0
  m_Name: nogaC_003_R
  m_TagString: Untagged
  m_Icon: {fileID: 0}
  m_NavMeshLayer: 0
  m_StaticEditorFlags: 0
  m_IsActive: 1
--- !u!4 &67438156
Transform:
  m_ObjectHideFlags: 0
  m_PrefabParentObject: {fileID: 400074, guid: 130cac6b96af6214296215324b5da188, type: 3}
  m_PrefabInternal: {fileID: 1275770332}
  m_GameObject: {fileID: 67438155}
  m_LocalRotation: {x: -.24690403, y: .146204472, z: .0835634246, w: .954295456}
  m_LocalPosition: {x: -.399152637, y: 6.39557953e-08, z: -2.98023224e-08}
  m_LocalScale: {x: .999999881, y: .999999881, z: .999999881}
  m_Children:
  - {fileID: 1286619408}
  m_Father: {fileID: 835100978}
  m_RootOrder: 0
--- !u!1 &139163363
GameObject:
  m_ObjectHideFlags: 0
  m_PrefabParentObject: {fileID: 100016, guid: 130cac6b96af6214296215324b5da188, type: 3}
  m_PrefabInternal: {fileID: 1275770332}
  serializedVersion: 4
  m_Component:
  - 4: {fileID: 139163364}
  m_Layer: 0
  m_Name: IKnoga_003_L
  m_TagString: Untagged
  m_Icon: {fileID: 0}
  m_NavMeshLayer: 0
  m_StaticEditorFlags: 0
  m_IsActive: 1
--- !u!4 &139163364
Transform:
  m_ObjectHideFlags: 0
  m_PrefabParentObject: {fileID: 400016, guid: 130cac6b96af6214296215324b5da188, type: 3}
  m_PrefabInternal: {fileID: 1275770332}
  m_GameObject: {fileID: 139163363}
  m_LocalRotation: {x: -.192030698, y: -.406778485, z: -.347775459, w: .822622478}
  m_LocalPosition: {x: -1.37405562, y: .956689239, z: .919202626}
  m_LocalScale: {x: .99999994, y: .99999994, z: 1}
  m_Children: []
  m_Father: {fileID: 2039135040}
  m_RootOrder: 4
--- !u!1 &163047917
GameObject:
  m_ObjectHideFlags: 0
  m_PrefabParentObject: {fileID: 0}
  m_PrefabInternal: {fileID: 0}
  serializedVersion: 4
  m_Component:
  - 4: {fileID: 163047921}
  - 33: {fileID: 163047920}
  - 64: {fileID: 163047919}
  - 23: {fileID: 163047918}
  m_Layer: 0
  m_Name: Plane
  m_TagString: Untagged
  m_Icon: {fileID: 0}
  m_NavMeshLayer: 0
  m_StaticEditorFlags: 0
  m_IsActive: 1
--- !u!23 &163047918
Renderer:
  m_ObjectHideFlags: 0
  m_PrefabParentObject: {fileID: 0}
  m_PrefabInternal: {fileID: 0}
  m_GameObject: {fileID: 163047917}
  m_Enabled: 1
  m_CastShadows: 1
  m_ReceiveShadows: 1
  m_LightmapIndex: 255
  m_LightmapTilingOffset: {x: 1, y: 1, z: 0, w: 0}
  m_Materials:
  - {fileID: 2100000, guid: 9bbb4a8cbf1f9c94f98e9a4853fa3d50, type: 2}
  m_SubsetIndices: 
  m_StaticBatchRoot: {fileID: 0}
  m_UseLightProbes: 0
  m_LightProbeAnchor: {fileID: 0}
  m_ScaleInLightmap: 1
  m_SortingLayerID: 0
  m_SortingOrder: 0
--- !u!64 &163047919
MeshCollider:
  m_ObjectHideFlags: 0
  m_PrefabParentObject: {fileID: 0}
  m_PrefabInternal: {fileID: 0}
  m_GameObject: {fileID: 163047917}
  m_Material: {fileID: 0}
  m_IsTrigger: 0
  m_Enabled: 1
  serializedVersion: 2
  m_SmoothSphereCollisions: 0
  m_Convex: 0
  m_Mesh: {fileID: 10209, guid: 0000000000000000e000000000000000, type: 0}
--- !u!33 &163047920
MeshFilter:
  m_ObjectHideFlags: 0
  m_PrefabParentObject: {fileID: 0}
  m_PrefabInternal: {fileID: 0}
  m_GameObject: {fileID: 163047917}
  m_Mesh: {fileID: 10209, guid: 0000000000000000e000000000000000, type: 0}
--- !u!4 &163047921
Transform:
  m_ObjectHideFlags: 0
  m_PrefabParentObject: {fileID: 0}
  m_PrefabInternal: {fileID: 0}
  m_GameObject: {fileID: 163047917}
  m_LocalRotation: {x: 0, y: 0, z: 0, w: 1}
  m_LocalPosition: {x: -.155590534, y: .459880829, z: -5.9753418}
  m_LocalScale: {x: 3.54509974, y: 1.33616638, z: 1.33616638}
  m_Children: []
  m_Father: {fileID: 0}
  m_RootOrder: 2
--- !u!1 &181105174
GameObject:
  m_ObjectHideFlags: 0
  m_PrefabParentObject: {fileID: 100050, guid: 130cac6b96af6214296215324b5da188, type: 3}
  m_PrefabInternal: {fileID: 1275770332}
  serializedVersion: 4
  m_Component:
  - 4: {fileID: 181105175}
  m_Layer: 0
  m_Name: nogaB_001_R
  m_TagString: Untagged
  m_Icon: {fileID: 0}
  m_NavMeshLayer: 0
  m_StaticEditorFlags: 0
  m_IsActive: 1
--- !u!4 &181105175
Transform:
  m_ObjectHideFlags: 0
  m_PrefabParentObject: {fileID: 400050, guid: 130cac6b96af6214296215324b5da188, type: 3}
  m_PrefabInternal: {fileID: 1275770332}
  m_GameObject: {fileID: 181105174}
  m_LocalRotation: {x: .0794368014, y: .136392176, z: -.0855783448, w: .983749628}
  m_LocalPosition: {x: -.516167641, y: 3.17274669e-08, z: 2.60770321e-08}
  m_LocalScale: {x: 1.00000012, y: 1, z: 1.00000012}
  m_Children:
  - {fileID: 1907557226}
  m_Father: {fileID: 487874375}
  m_RootOrder: 0
--- !u!1 &189970952
GameObject:
  m_ObjectHideFlags: 0
  m_PrefabParentObject: {fileID: 100028, guid: 130cac6b96af6214296215324b5da188, type: 3}
  m_PrefabInternal: {fileID: 1275770332}
  serializedVersion: 4
  m_Component:
  - 4: {fileID: 189970953}
  m_Layer: 0
  m_Name: Master
  m_TagString: Untagged
  m_Icon: {fileID: 0}
  m_NavMeshLayer: 0
  m_StaticEditorFlags: 0
  m_IsActive: 1
--- !u!4 &189970953
Transform:
  m_ObjectHideFlags: 0
  m_PrefabParentObject: {fileID: 400028, guid: 130cac6b96af6214296215324b5da188, type: 3}
  m_PrefabInternal: {fileID: 1275770332}
  m_GameObject: {fileID: 189970952}
  m_LocalRotation: {x: .5, y: .5, z: -.5, w: .5}
  m_LocalPosition: {x: -0, y: 0, z: -1.14090538}
  m_LocalScale: {x: 1, y: 1, z: 1}
  m_Children:
  - {fileID: 439255191}
  m_Father: {fileID: 2039135040}
  m_RootOrder: 8
--- !u!1 &207872907
GameObject:
  m_ObjectHideFlags: 0
  m_PrefabParentObject: {fileID: 100046, guid: 130cac6b96af6214296215324b5da188, type: 3}
  m_PrefabInternal: {fileID: 1275770332}
  serializedVersion: 4
  m_Component:
  - 4: {fileID: 207872908}
  m_Layer: 0
  m_Name: nogaA_R
  m_TagString: Untagged
  m_Icon: {fileID: 0}
  m_NavMeshLayer: 0
  m_StaticEditorFlags: 0
  m_IsActive: 1
--- !u!4 &207872908
Transform:
  m_ObjectHideFlags: 0
  m_PrefabParentObject: {fileID: 400046, guid: 130cac6b96af6214296215324b5da188, type: 3}
  m_PrefabInternal: {fileID: 1275770332}
  m_GameObject: {fileID: 207872907}
  m_LocalRotation: {x: .81984365, y: -.359047294, z: .409752846, w: .176193148}
  m_LocalPosition: {x: -1.86386979, y: .553931653, z: -.102237023}
  m_LocalScale: {x: 1, y: .999999881, z: .99999994}
  m_Children:
  - {fileID: 1158205926}
  m_Father: {fileID: 439255191}
  m_RootOrder: 8
--- !u!1 &253429093
GameObject:
  m_ObjectHideFlags: 0
  m_PrefabParentObject: {fileID: 100022, guid: 130cac6b96af6214296215324b5da188, type: 3}
  m_PrefabInternal: {fileID: 1275770332}
  serializedVersion: 4
  m_Component:
  - 4: {fileID: 253429094}
  m_Layer: 0
  m_Name: IKnoga_R
  m_TagString: Untagged
  m_Icon: {fileID: 0}
  m_NavMeshLayer: 0
  m_StaticEditorFlags: 0
  m_IsActive: 1
--- !u!4 &253429094
Transform:
  m_ObjectHideFlags: 0
  m_PrefabParentObject: {fileID: 400022, guid: 130cac6b96af6214296215324b5da188, type: 3}
  m_PrefabInternal: {fileID: 1275770332}
  m_GameObject: {fileID: 253429093}
  m_LocalRotation: {x: .379580766, y: -.222185045, z: .775065958, w: .453679442}
  m_LocalPosition: {x: 1.2139039, y: -1.56386924, z: 1.85883558}
  m_LocalScale: {x: .999999881, y: .999999881, z: 1}
  m_Children: []
  m_Father: {fileID: 2039135040}
  m_RootOrder: 7
--- !u!1 &297201029
GameObject:
  m_ObjectHideFlags: 0
  m_PrefabParentObject: {fileID: 100106, guid: 130cac6b96af6214296215324b5da188, type: 3}
  m_PrefabInternal: {fileID: 1275770332}
  serializedVersion: 4
  m_Component:
  - 4: {fileID: 297201030}
  m_Layer: 0
  m_Name: zubB_L
  m_TagString: Untagged
  m_Icon: {fileID: 0}
  m_NavMeshLayer: 0
  m_StaticEditorFlags: 0
  m_IsActive: 1
--- !u!4 &297201030
Transform:
  m_ObjectHideFlags: 0
  m_PrefabParentObject: {fileID: 400106, guid: 130cac6b96af6214296215324b5da188, type: 3}
  m_PrefabInternal: {fileID: 1275770332}
  m_GameObject: {fileID: 297201029}
  m_LocalRotation: {x: .00484066829, y: -.0426298901, z: .540263474, w: .840401471}
  m_LocalPosition: {x: -.375862509, y: 1.87610958e-08, z: -3.25962901e-09}
  m_LocalScale: {x: .999999881, y: .999999881, z: 1.00000012}
  m_Children: []
  m_Father: {fileID: 1479640370}
  m_RootOrder: 0
--- !u!1 &344087201
GameObject:
  m_ObjectHideFlags: 0
  m_PrefabParentObject: {fileID: 100036, guid: 130cac6b96af6214296215324b5da188, type: 3}
  m_PrefabInternal: {fileID: 1275770332}
  serializedVersion: 4
  m_Component:
  - 4: {fileID: 344087202}
  m_Layer: 0
  m_Name: nogaA_002_L
  m_TagString: Untagged
  m_Icon: {fileID: 0}
  m_NavMeshLayer: 0
  m_StaticEditorFlags: 0
  m_IsActive: 1
--- !u!4 &344087202
Transform:
  m_ObjectHideFlags: 0
  m_PrefabParentObject: {fileID: 400036, guid: 130cac6b96af6214296215324b5da188, type: 3}
  m_PrefabInternal: {fileID: 1275770332}
  m_GameObject: {fileID: 344087201}
  m_LocalRotation: {x: .704518914, y: .66214484, z: .188637391, w: -.172142968}
  m_LocalPosition: {x: -.761672497, y: -.808491111, z: .351808012}
  m_LocalScale: {x: 1.00000012, y: .99999994, z: .999999821}
  m_Children:
  - {fileID: 555076187}
  m_Father: {fileID: 439255191}
  m_RootOrder: 3
--- !u!1 &350455472
GameObject:
  m_ObjectHideFlags: 0
  m_PrefabParentObject: {fileID: 100018, guid: 130cac6b96af6214296215324b5da188, type: 3}
  m_PrefabInternal: {fileID: 1275770332}
  serializedVersion: 4
  m_Component:
  - 4: {fileID: 350455473}
  m_Layer: 0
  m_Name: IKnoga_003_R
  m_TagString: Untagged
  m_Icon: {fileID: 0}
  m_NavMeshLayer: 0
  m_StaticEditorFlags: 0
  m_IsActive: 1
--- !u!4 &350455473
Transform:
  m_ObjectHideFlags: 0
  m_PrefabParentObject: {fileID: 400018, guid: 130cac6b96af6214296215324b5da188, type: 3}
  m_PrefabInternal: {fileID: 1275770332}
  m_GameObject: {fileID: 350455472}
  m_LocalRotation: {x: .406778455, y: .192030594, z: .822622538, w: -.34777537}
  m_LocalPosition: {x: 1.37405562, y: .956689239, z: .919202626}
  m_LocalScale: {x: .999999881, y: .99999994, z: 1}
  m_Children: []
  m_Father: {fileID: 2039135040}
  m_RootOrder: 5
--- !u!1 &365595977
GameObject:
  m_ObjectHideFlags: 0
  m_PrefabParentObject: {fileID: 0}
  m_PrefabInternal: {fileID: 0}
  serializedVersion: 4
  m_Component:
  - 4: {fileID: 365595979}
  - 108: {fileID: 365595978}
  m_Layer: 0
  m_Name: Directional light
  m_TagString: Untagged
  m_Icon: {fileID: 0}
  m_NavMeshLayer: 0
  m_StaticEditorFlags: 0
  m_IsActive: 1
--- !u!108 &365595978
Light:
  m_ObjectHideFlags: 0
  m_PrefabParentObject: {fileID: 0}
  m_PrefabInternal: {fileID: 0}
  m_GameObject: {fileID: 365595977}
  m_Enabled: 1
  serializedVersion: 3
  m_Type: 1
  m_Color: {r: 1, g: 1, b: 1, a: 1}
  m_Intensity: .730000019
  m_Range: 10
  m_SpotAngle: 30
  m_CookieSize: 10
  m_Shadows:
    m_Type: 2
    m_Resolution: 1
    m_Strength: .648999989
    m_Bias: .0439999998
    m_Softness: 4.69999981
    m_SoftnessFade: .970000029
  m_Cookie: {fileID: 0}
  m_DrawHalo: 0
  m_ActuallyLightmapped: 0
  m_Flare: {fileID: 0}
  m_RenderMode: 0
  m_CullingMask:
    serializedVersion: 2
    m_Bits: 4294967295
  m_Lightmapping: 1
  m_ShadowSamples: 1
  m_ShadowRadius: 0
  m_ShadowAngle: 0
  m_IndirectIntensity: 1
  m_AreaSize: {x: 1, y: 1}
--- !u!4 &365595979
Transform:
  m_ObjectHideFlags: 0
  m_PrefabParentObject: {fileID: 0}
  m_PrefabInternal: {fileID: 0}
  m_GameObject: {fileID: 365595977}
  m_LocalRotation: {x: .39700076, y: .135012969, z: -.0822215304, w: .904102623}
  m_LocalPosition: {x: -4.60491037, y: 89.0343399, z: -27.5029411}
  m_LocalScale: {x: 1, y: 1, z: 1}
  m_Children: []
  m_Father: {fileID: 0}
  m_RootOrder: 0
--- !u!1 &380521204
GameObject:
  m_ObjectHideFlags: 0
  m_PrefabParentObject: {fileID: 100030, guid: 130cac6b96af6214296215324b5da188, type: 3}
  m_PrefabInternal: {fileID: 1275770332}
  serializedVersion: 4
  m_Component:
  - 4: {fileID: 380521205}
  - 137: {fileID: 380521206}
  m_Layer: 0
  m_Name: Mesh
  m_TagString: Untagged
  m_Icon: {fileID: 0}
  m_NavMeshLayer: 0
  m_StaticEditorFlags: 0
  m_IsActive: 1
--- !u!4 &380521205
Transform:
  m_ObjectHideFlags: 0
  m_PrefabParentObject: {fileID: 400030, guid: 130cac6b96af6214296215324b5da188, type: 3}
  m_PrefabInternal: {fileID: 1275770332}
  m_GameObject: {fileID: 380521204}
  m_LocalRotation: {x: .707106829, y: 0, z: 0, w: .707106709}
  m_LocalPosition: {x: 0, y: 0, z: -1.13667846}
  m_LocalScale: {x: .0249293819, y: .0249293838, z: .0249293838}
  m_Children: []
  m_Father: {fileID: 1816004844}
  m_RootOrder: 1
--- !u!137 &380521206
SkinnedMeshRenderer:
  m_ObjectHideFlags: 0
  m_PrefabParentObject: {fileID: 13700000, guid: 130cac6b96af6214296215324b5da188,
    type: 3}
  m_PrefabInternal: {fileID: 1275770332}
  m_GameObject: {fileID: 380521204}
  m_Enabled: 1
  m_CastShadows: 1
  m_ReceiveShadows: 1
  m_LightmapIndex: 255
  m_LightmapTilingOffset: {x: 1, y: 1, z: 0, w: 0}
  m_Materials:
  - {fileID: 2100000, guid: 78d88e566e5f7b14aaa719c52b23bd6c, type: 2}
  m_SubsetIndices: 
  m_StaticBatchRoot: {fileID: 0}
  m_UseLightProbes: 0
  m_LightProbeAnchor: {fileID: 0}
  m_ScaleInLightmap: 1
  m_SortingLayerID: 0
  m_SortingOrder: 0
  serializedVersion: 2
  m_Quality: 0
  m_UpdateWhenOffscreen: 0
  m_Mesh: {fileID: 4300000, guid: 130cac6b96af6214296215324b5da188, type: 3}
  m_Bones:
  - {fileID: 189970953}
  - {fileID: 439255191}
  - {fileID: 580519535}
  - {fileID: 2124718905}
  - {fileID: 1005574106}
  - {fileID: 659146741}
  - {fileID: 39126809}
  - {fileID: 1833461981}
  - {fileID: 1479640370}
  - {fileID: 297201030}
  - {fileID: 1725622941}
  - {fileID: 861839205}
  - {fileID: 1854715607}
  - {fileID: 539622128}
  - {fileID: 1331142832}
  - {fileID: 464247149}
  - {fileID: 1055385593}
  - {fileID: 1100040206}
  - {fileID: 1851748317}
  - {fileID: 1540893346}
  - {fileID: 344087202}
  - {fileID: 555076187}
  - {fileID: 392690241}
  - {fileID: 2118350389}
  - {fileID: 972427901}
  - {fileID: 1086872144}
  - {fileID: 53441764}
  - {fileID: 986794078}
  - {fileID: 207872908}
  - {fileID: 1158205926}
  - {fileID: 1645271834}
  - {fileID: 1149581686}
  - {fileID: 487874375}
  - {fileID: 181105175}
  - {fileID: 1907557226}
  - {fileID: 1428932571}
  - {fileID: 1029162330}
  - {fileID: 2091776207}
  - {fileID: 464753837}
  - {fileID: 629084923}
  - {fileID: 1307162439}
  - {fileID: 835100978}
  - {fileID: 67438156}
  - {fileID: 1286619408}
  - {fileID: 1916504287}
  - {fileID: 1458194637}
  - {fileID: 629468435}
  - {fileID: 139163364}
  - {fileID: 253429094}
  - {fileID: 794483753}
  - {fileID: 1890505898}
  - {fileID: 350455473}
  m_BlendShapeWeights: []
  m_RootBone: {fileID: 189970953}
  m_AABB:
    m_Center: {x: -3.40124059, y: .103747606, z: 3.24693012}
    m_Extent: {x: 3.87342763, y: 3.963413, z: 6.2418623}
  m_DirtyAABB: 0
--- !u!1 &392690240
GameObject:
  m_ObjectHideFlags: 0
  m_PrefabParentObject: {fileID: 100068, guid: 130cac6b96af6214296215324b5da188, type: 3}
  m_PrefabInternal: {fileID: 1275770332}
  serializedVersion: 4
  m_Component:
  - 4: {fileID: 392690241}
  m_Layer: 0
  m_Name: nogaC_002_L
  m_TagString: Untagged
  m_Icon: {fileID: 0}
  m_NavMeshLayer: 0
  m_StaticEditorFlags: 0
  m_IsActive: 1
--- !u!4 &392690241
Transform:
  m_ObjectHideFlags: 0
  m_PrefabParentObject: {fileID: 400068, guid: 130cac6b96af6214296215324b5da188, type: 3}
  m_PrefabInternal: {fileID: 1275770332}
  m_GameObject: {fileID: 392690240}
  m_LocalRotation: {x: .061524298, y: .210812002, z: -.0319526866, w: .975065172}
  m_LocalPosition: {x: -.407552272, y: 5.18505487e-08, z: 7.83184078e-08}
  m_LocalScale: {x: .99999994, y: .99999994, z: .999999881}
  m_Children:
  - {fileID: 2118350389}
  m_Father: {fileID: 555076187}
  m_RootOrder: 0
--- !u!1 &439255190
GameObject:
  m_ObjectHideFlags: 0
  m_PrefabParentObject: {fileID: 100100, guid: 130cac6b96af6214296215324b5da188, type: 3}
  m_PrefabInternal: {fileID: 1275770332}
  serializedVersion: 4
  m_Component:
  - 4: {fileID: 439255191}
  m_Layer: 0
  m_Name: Thorso
  m_TagString: Untagged
  m_Icon: {fileID: 0}
  m_NavMeshLayer: 0
  m_StaticEditorFlags: 0
  m_IsActive: 1
--- !u!4 &439255191
Transform:
  m_ObjectHideFlags: 0
  m_PrefabParentObject: {fileID: 400100, guid: 130cac6b96af6214296215324b5da188, type: 3}
  m_PrefabInternal: {fileID: 1275770332}
  m_GameObject: {fileID: 439255190}
  m_LocalRotation: {x: -.000204758078, y: .709672391, z: -.000196160181, w: .704531729}
  m_LocalPosition: {x: -1.26716006, y: -.00101556059, z: -.815527439}
  m_LocalScale: {x: 1, y: 1.00000012, z: 1}
  m_Children:
  - {fileID: 1331142832}
  - {fileID: 1055385593}
  - {fileID: 487874375}
  - {fileID: 344087202}
  - {fileID: 1029162330}
  - {fileID: 972427901}
  - {fileID: 1307162439}
  - {fileID: 580519535}
  - {fileID: 207872908}
  - {fileID: 39126809}
  m_Father: {fileID: 189970953}
  m_RootOrder: 0
--- !u!1 &464247148
GameObject:
  m_ObjectHideFlags: 0
  m_PrefabParentObject: {fileID: 100004, guid: 130cac6b96af6214296215324b5da188, type: 3}
  m_PrefabInternal: {fileID: 1275770332}
  serializedVersion: 4
  m_Component:
  - 4: {fileID: 464247149}
  m_Layer: 0
  m_Name: Bone_004
  m_TagString: Untagged
  m_Icon: {fileID: 0}
  m_NavMeshLayer: 0
  m_StaticEditorFlags: 0
  m_IsActive: 1
--- !u!4 &464247149
Transform:
  m_ObjectHideFlags: 0
  m_PrefabParentObject: {fileID: 400004, guid: 130cac6b96af6214296215324b5da188, type: 3}
  m_PrefabInternal: {fileID: 1275770332}
  m_GameObject: {fileID: 464247148}
  m_LocalRotation: {x: 1.8279287e-09, y: -.390407681, z: -4.56755878e-08, w: .920642078}
  m_LocalPosition: {x: -.345712125, y: 2.61339892e-08, z: 3.00643102e-08}
  m_LocalScale: {x: 1, y: 1, z: 1}
  m_Children: []
  m_Father: {fileID: 1331142832}
  m_RootOrder: 0
--- !u!1 &464753836
GameObject:
  m_ObjectHideFlags: 0
  m_PrefabParentObject: {fileID: 100070, guid: 130cac6b96af6214296215324b5da188, type: 3}
  m_PrefabInternal: {fileID: 1275770332}
  serializedVersion: 4
  m_Component:
  - 4: {fileID: 464753837}
  m_Layer: 0
  m_Name: nogaC_002_R
  m_TagString: Untagged
  m_Icon: {fileID: 0}
  m_NavMeshLayer: 0
  m_StaticEditorFlags: 0
  m_IsActive: 1
--- !u!4 &464753837
Transform:
  m_ObjectHideFlags: 0
  m_PrefabParentObject: {fileID: 400070, guid: 130cac6b96af6214296215324b5da188, type: 3}
  m_PrefabInternal: {fileID: 1275770332}
  m_GameObject: {fileID: 464753836}
  m_LocalRotation: {x: -.061524272, y: .210812017, z: .0319526866, w: .975065172}
  m_LocalPosition: {x: -.407552332, y: 4.3265878e-08, z: -7.04894774e-08}
  m_LocalScale: {x: .999999881, y: .999999881, z: .99999994}
  m_Children:
  - {fileID: 629084923}
  m_Father: {fileID: 2091776207}
  m_RootOrder: 0
--- !u!1 &487874374
GameObject:
  m_ObjectHideFlags: 0
  m_PrefabParentObject: {fileID: 100034, guid: 130cac6b96af6214296215324b5da188, type: 3}
  m_PrefabInternal: {fileID: 1275770332}
  serializedVersion: 4
  m_Component:
  - 4: {fileID: 487874375}
  m_Layer: 0
  m_Name: nogaA_001_R
  m_TagString: Untagged
  m_Icon: {fileID: 0}
  m_NavMeshLayer: 0
  m_StaticEditorFlags: 0
  m_IsActive: 1
--- !u!4 &487874375
Transform:
  m_ObjectHideFlags: 0
  m_PrefabParentObject: {fileID: 400034, guid: 130cac6b96af6214296215324b5da188, type: 3}
  m_PrefabInternal: {fileID: 1275770332}
  m_GameObject: {fileID: 487874374}
  m_LocalRotation: {x: .766456664, y: -.567119658, z: .244540676, w: .176406682}
  m_LocalPosition: {x: -1.351493, y: .668557644, z: .444626361}
  m_LocalScale: {x: .999999762, y: 1, z: 1}
  m_Children:
  - {fileID: 181105175}
  m_Father: {fileID: 439255191}
  m_RootOrder: 2
--- !u!1 &539622127
GameObject:
  m_ObjectHideFlags: 0
  m_PrefabParentObject: {fileID: 100026, guid: 130cac6b96af6214296215324b5da188, type: 3}
  m_PrefabInternal: {fileID: 1275770332}
  serializedVersion: 4
  m_Component:
  - 4: {fileID: 539622128}
  m_Layer: 0
  m_Name: IKzub_R
  m_TagString: Untagged
  m_Icon: {fileID: 0}
  m_NavMeshLayer: 0
  m_StaticEditorFlags: 0
  m_IsActive: 1
--- !u!4 &539622128
Transform:
  m_ObjectHideFlags: 0
  m_PrefabParentObject: {fileID: 400026, guid: 130cac6b96af6214296215324b5da188, type: 3}
  m_PrefabInternal: {fileID: 1275770332}
  m_GameObject: {fileID: 539622127}
  m_LocalRotation: {x: .00236439169, y: -.0595156401, z: -.420437306, w: .905364454}
  m_LocalPosition: {x: -1.20289159, y: -.527465522, z: -.0245702062}
  m_LocalScale: {x: 1, y: .999999881, z: 1}
  m_Children: []
  m_Father: {fileID: 1833461981}
  m_RootOrder: 1
--- !u!1 &555076186
GameObject:
  m_ObjectHideFlags: 0
  m_PrefabParentObject: {fileID: 100052, guid: 130cac6b96af6214296215324b5da188, type: 3}
  m_PrefabInternal: {fileID: 1275770332}
  serializedVersion: 4
  m_Component:
  - 4: {fileID: 555076187}
  m_Layer: 0
  m_Name: nogaB_002_L
  m_TagString: Untagged
  m_Icon: {fileID: 0}
  m_NavMeshLayer: 0
  m_StaticEditorFlags: 0
  m_IsActive: 1
--- !u!4 &555076187
Transform:
  m_ObjectHideFlags: 0
  m_PrefabParentObject: {fileID: 400052, guid: 130cac6b96af6214296215324b5da188, type: 3}
  m_PrefabInternal: {fileID: 1275770332}
  m_GameObject: {fileID: 555076186}
  m_LocalRotation: {x: -.0135374758, y: .180422813, z: .0161573365, w: .983363271}
  m_LocalPosition: {x: -.402939022, y: 3.01077812e-08, z: 2.45636329e-08}
  m_LocalScale: {x: 1, y: .999999881, z: 1}
  m_Children:
  - {fileID: 392690241}
  m_Father: {fileID: 344087202}
  m_RootOrder: 0
--- !u!1 &580519534
GameObject:
  m_ObjectHideFlags: 0
  m_PrefabParentObject: {fileID: 100044, guid: 130cac6b96af6214296215324b5da188, type: 3}
  m_PrefabInternal: {fileID: 1275770332}
  serializedVersion: 4
  m_Component:
  - 4: {fileID: 580519535}
  m_Layer: 0
  m_Name: nogaA_L
  m_TagString: Untagged
  m_Icon: {fileID: 0}
  m_NavMeshLayer: 0
  m_StaticEditorFlags: 0
  m_IsActive: 1
--- !u!4 &580519535
Transform:
  m_ObjectHideFlags: 0
  m_PrefabParentObject: {fileID: 400044, guid: 130cac6b96af6214296215324b5da188, type: 3}
  m_PrefabInternal: {fileID: 1275770332}
  m_GameObject: {fileID: 580519534}
  m_LocalRotation: {x: .819638193, y: .359507829, z: .409656495, w: -.176433906}
  m_LocalPosition: {x: -1.86324155, y: -.554011762, z: -.102248281}
  m_LocalScale: {x: 1.00000024, y: .999999762, z: 1}
  m_Children:
  - {fileID: 2124718905}
  m_Father: {fileID: 439255191}
  m_RootOrder: 7
--- !u!1 &629084922
GameObject:
  m_ObjectHideFlags: 0
  m_PrefabParentObject: {fileID: 100086, guid: 130cac6b96af6214296215324b5da188, type: 3}
  m_PrefabInternal: {fileID: 1275770332}
  serializedVersion: 4
  m_Component:
  - 4: {fileID: 629084923}
  m_Layer: 0
  m_Name: nogaD_002_R
  m_TagString: Untagged
  m_Icon: {fileID: 0}
  m_NavMeshLayer: 0
  m_StaticEditorFlags: 0
  m_IsActive: 1
--- !u!4 &629084923
Transform:
  m_ObjectHideFlags: 0
  m_PrefabParentObject: {fileID: 400086, guid: 130cac6b96af6214296215324b5da188, type: 3}
  m_PrefabInternal: {fileID: 1275770332}
  m_GameObject: {fileID: 629084922}
  m_LocalRotation: {x: .00498547591, y: .92380935, z: -.03971982, w: -.380754322}
  m_LocalPosition: {x: -.512814701, y: 4.31097291e-08, z: -3.22470441e-08}
  m_LocalScale: {x: .999999881, y: .99999994, z: .999999642}
  m_Children: []
  m_Father: {fileID: 464753837}
  m_RootOrder: 0
--- !u!1 &629468434
GameObject:
  m_ObjectHideFlags: 0
  m_PrefabParentObject: {fileID: 100012, guid: 130cac6b96af6214296215324b5da188, type: 3}
  m_PrefabInternal: {fileID: 1275770332}
  serializedVersion: 4
  m_Component:
  - 4: {fileID: 629468435}
  m_Layer: 0
  m_Name: IKnoga_002_L
  m_TagString: Untagged
  m_Icon: {fileID: 0}
  m_NavMeshLayer: 0
  m_StaticEditorFlags: 0
  m_IsActive: 1
--- !u!4 &629468435
Transform:
  m_ObjectHideFlags: 0
  m_PrefabParentObject: {fileID: 400012, guid: 130cac6b96af6214296215324b5da188, type: 3}
  m_PrefabInternal: {fileID: 1275770332}
  m_GameObject: {fileID: 629468434}
  m_LocalRotation: {x: -.0410854891, y: -.540364325, z: -.0637162998, w: .838008702}
  m_LocalPosition: {x: -1.59661138, y: .0126149692, z: .773449302}
  m_LocalScale: {x: .999999821, y: .999999702, z: .999999821}
  m_Children: []
  m_Father: {fileID: 2039135040}
  m_RootOrder: 2
--- !u!1 &659146740
GameObject:
  m_ObjectHideFlags: 0
  m_PrefabParentObject: {fileID: 100092, guid: 130cac6b96af6214296215324b5da188, type: 3}
  m_PrefabInternal: {fileID: 1275770332}
  serializedVersion: 4
  m_Component:
  - 4: {fileID: 659146741}
  m_Layer: 0
  m_Name: nogaD_L
  m_TagString: Untagged
  m_Icon: {fileID: 0}
  m_NavMeshLayer: 0
  m_StaticEditorFlags: 0
  m_IsActive: 1
--- !u!4 &659146741
Transform:
  m_ObjectHideFlags: 0
  m_PrefabParentObject: {fileID: 400092, guid: 130cac6b96af6214296215324b5da188, type: 3}
  m_PrefabInternal: {fileID: 1275770332}
  m_GameObject: {fileID: 659146740}
  m_LocalRotation: {x: .0297715049, y: .871513605, z: -.175332382, w: -.456986099}
  m_LocalPosition: {x: -.730998516, y: 1.54393319e-07, z: 1.1920929e-07}
  m_LocalScale: {x: 1.00000012, y: 1, z: 1}
  m_Children: []
  m_Father: {fileID: 1005574106}
  m_RootOrder: 0
--- !u!1 &794483752
GameObject:
  m_ObjectHideFlags: 0
  m_PrefabParentObject: {fileID: 100010, guid: 130cac6b96af6214296215324b5da188, type: 3}
  m_PrefabInternal: {fileID: 1275770332}
  serializedVersion: 4
  m_Component:
  - 4: {fileID: 794483753}
  m_Layer: 0
  m_Name: IKnoga_001_R
  m_TagString: Untagged
  m_Icon: {fileID: 0}
  m_NavMeshLayer: 0
  m_StaticEditorFlags: 0
  m_IsActive: 1
--- !u!4 &794483753
Transform:
  m_ObjectHideFlags: 0
  m_PrefabParentObject: {fileID: 400010, guid: 130cac6b96af6214296215324b5da188, type: 3}
  m_PrefabInternal: {fileID: 1275770332}
  m_GameObject: {fileID: 794483752}
  m_LocalRotation: {x: .429141849, y: -.11207442, z: .86717242, w: .226469919}
  m_LocalPosition: {x: 1.49941242, y: -.958647966, z: .718932092}
  m_LocalScale: {x: 1, y: .999999762, z: .999999881}
  m_Children: []
  m_Father: {fileID: 2039135040}
  m_RootOrder: 1
--- !u!1 &835100977
GameObject:
  m_ObjectHideFlags: 0
  m_PrefabParentObject: {fileID: 100058, guid: 130cac6b96af6214296215324b5da188, type: 3}
  m_PrefabInternal: {fileID: 1275770332}
  serializedVersion: 4
  m_Component:
  - 4: {fileID: 835100978}
  m_Layer: 0
  m_Name: nogaB_003_R
  m_TagString: Untagged
  m_Icon: {fileID: 0}
  m_NavMeshLayer: 0
  m_StaticEditorFlags: 0
  m_IsActive: 1
--- !u!4 &835100978
Transform:
  m_ObjectHideFlags: 0
  m_PrefabParentObject: {fileID: 400058, guid: 130cac6b96af6214296215324b5da188, type: 3}
  m_PrefabInternal: {fileID: 1275770332}
  m_GameObject: {fileID: 835100977}
  m_LocalRotation: {x: .01447077, y: .279365033, z: -.0137966471, w: .959976792}
  m_LocalPosition: {x: -.406627834, y: 2.406636e-09, z: -2.23517418e-08}
  m_LocalScale: {x: 1.00000012, y: 1, z: 1.00000024}
  m_Children:
  - {fileID: 67438156}
  m_Father: {fileID: 1307162439}
  m_RootOrder: 0
--- !u!1 &861839204
GameObject:
  m_ObjectHideFlags: 0
  m_PrefabParentObject: {fileID: 100108, guid: 130cac6b96af6214296215324b5da188, type: 3}
  m_PrefabInternal: {fileID: 1275770332}
  serializedVersion: 4
  m_Component:
  - 4: {fileID: 861839205}
  m_Layer: 0
  m_Name: zubB_R
  m_TagString: Untagged
  m_Icon: {fileID: 0}
  m_NavMeshLayer: 0
  m_StaticEditorFlags: 0
  m_IsActive: 1
--- !u!4 &861839205
Transform:
  m_ObjectHideFlags: 0
  m_PrefabParentObject: {fileID: 400108, guid: 130cac6b96af6214296215324b5da188, type: 3}
  m_PrefabInternal: {fileID: 1275770332}
  m_GameObject: {fileID: 861839204}
  m_LocalRotation: {x: -.004840679, y: -.0426298864, z: -.540263414, w: .84040153}
  m_LocalPosition: {x: -.37586236, y: 7.24623135e-08, z: 2.56113708e-08}
  m_LocalScale: {x: .999999881, y: .999999881, z: 1.00000012}
  m_Children: []
  m_Father: {fileID: 1725622941}
  m_RootOrder: 0
--- !u!1 &972427900
GameObject:
  m_ObjectHideFlags: 0
  m_PrefabParentObject: {fileID: 100040, guid: 130cac6b96af6214296215324b5da188, type: 3}
  m_PrefabInternal: {fileID: 1275770332}
  serializedVersion: 4
  m_Component:
  - 4: {fileID: 972427901}
  m_Layer: 0
  m_Name: nogaA_003_L
  m_TagString: Untagged
  m_Icon: {fileID: 0}
  m_NavMeshLayer: 0
  m_StaticEditorFlags: 0
  m_IsActive: 1
--- !u!4 &972427901
Transform:
  m_ObjectHideFlags: 0
  m_PrefabParentObject: {fileID: 400040, guid: 130cac6b96af6214296215324b5da188, type: 3}
  m_PrefabInternal: {fileID: 1275770332}
  m_GameObject: {fileID: 972427900}
  m_LocalRotation: {x: .554229379, y: .791097343, z: .151401043, w: -.20993489}
  m_LocalPosition: {x: -.098475039, y: -.777818084, z: .356629699}
  m_LocalScale: {x: 1, y: .99999994, z: .999999881}
  m_Children:
  - {fileID: 1086872144}
  m_Father: {fileID: 439255191}
  m_RootOrder: 5
--- !u!1 &986794077
GameObject:
  m_ObjectHideFlags: 0
  m_PrefabParentObject: {fileID: 100088, guid: 130cac6b96af6214296215324b5da188, type: 3}
  m_PrefabInternal: {fileID: 1275770332}
  serializedVersion: 4
  m_Component:
  - 4: {fileID: 986794078}
  m_Layer: 0
  m_Name: nogaD_003_L
  m_TagString: Untagged
  m_Icon: {fileID: 0}
  m_NavMeshLayer: 0
  m_StaticEditorFlags: 0
  m_IsActive: 1
--- !u!4 &986794078
Transform:
  m_ObjectHideFlags: 0
  m_PrefabParentObject: {fileID: 400088, guid: 130cac6b96af6214296215324b5da188, type: 3}
  m_PrefabInternal: {fileID: 1275770332}
  m_GameObject: {fileID: 986794077}
  m_LocalRotation: {x: .0105434079, y: .91437906, z: -.0430309549, w: -.402427763}
  m_LocalPosition: {x: -.568159938, y: 5.83975179e-09, z: 1.1920929e-07}
  m_LocalScale: {x: 1.00000012, y: 1.00000012, z: 1.00000012}
  m_Children: []
  m_Father: {fileID: 53441764}
  m_RootOrder: 0
--- !u!1 &1005574105
GameObject:
  m_ObjectHideFlags: 0
  m_PrefabParentObject: {fileID: 100076, guid: 130cac6b96af6214296215324b5da188, type: 3}
  m_PrefabInternal: {fileID: 1275770332}
  serializedVersion: 4
  m_Component:
  - 4: {fileID: 1005574106}
  m_Layer: 0
  m_Name: nogaC_L
  m_TagString: Untagged
  m_Icon: {fileID: 0}
  m_NavMeshLayer: 0
  m_StaticEditorFlags: 0
  m_IsActive: 1
--- !u!4 &1005574106
Transform:
  m_ObjectHideFlags: 0
  m_PrefabParentObject: {fileID: 400076, guid: 130cac6b96af6214296215324b5da188, type: 3}
  m_PrefabInternal: {fileID: 1275770332}
  m_GameObject: {fileID: 1005574105}
  m_LocalRotation: {x: -.00786523987, y: .102803402, z: .00349110435, w: .99466449}
  m_LocalPosition: {x: -.560298085, y: -1.13578551e-08, z: 5.96046448e-08}
  m_LocalScale: {x: .99999994, y: 1.00000012, z: 1.00000012}
  m_Children:
  - {fileID: 659146741}
  m_Father: {fileID: 2124718905}
  m_RootOrder: 0
--- !u!1 &1029162329
GameObject:
  m_ObjectHideFlags: 0
  m_PrefabParentObject: {fileID: 100038, guid: 130cac6b96af6214296215324b5da188, type: 3}
  m_PrefabInternal: {fileID: 1275770332}
  serializedVersion: 4
  m_Component:
  - 4: {fileID: 1029162330}
  m_Layer: 0
  m_Name: nogaA_002_R
  m_TagString: Untagged
  m_Icon: {fileID: 0}
  m_NavMeshLayer: 0
  m_StaticEditorFlags: 0
  m_IsActive: 1
--- !u!4 &1029162330
Transform:
  m_ObjectHideFlags: 0
  m_PrefabParentObject: {fileID: 400038, guid: 130cac6b96af6214296215324b5da188, type: 3}
  m_PrefabInternal: {fileID: 1275770332}
  m_GameObject: {fileID: 1029162329}
  m_LocalRotation: {x: .704896271, y: -.661746979, z: .188728109, w: .17202881}
  m_LocalPosition: {x: -.762590051, y: .809650958, z: .351824433}
  m_LocalScale: {x: .999999821, y: .99999994, z: 1}
  m_Children:
  - {fileID: 2091776207}
  m_Father: {fileID: 439255191}
  m_RootOrder: 4
--- !u!1 &1055385592
GameObject:
  m_ObjectHideFlags: 0
  m_PrefabParentObject: {fileID: 100032, guid: 130cac6b96af6214296215324b5da188, type: 3}
  m_PrefabInternal: {fileID: 1275770332}
  serializedVersion: 4
  m_Component:
  - 4: {fileID: 1055385593}
  m_Layer: 0
  m_Name: nogaA_001_L
  m_TagString: Untagged
  m_Icon: {fileID: 0}
  m_NavMeshLayer: 0
  m_StaticEditorFlags: 0
  m_IsActive: 1
--- !u!4 &1055385593
Transform:
  m_ObjectHideFlags: 0
  m_PrefabParentObject: {fileID: 400032, guid: 130cac6b96af6214296215324b5da188, type: 3}
  m_PrefabInternal: {fileID: 1275770332}
  m_GameObject: {fileID: 1055385592}
  m_LocalRotation: {x: .766133189, y: .567551792, z: .244446188, w: -.176553056}
  m_LocalPosition: {x: -1.35073507, y: -.668067575, z: .444612741}
  m_LocalScale: {x: .999999762, y: .999999881, z: .999999762}
  m_Children:
  - {fileID: 1100040206}
  m_Father: {fileID: 439255191}
  m_RootOrder: 1
--- !u!1 &1086872143
GameObject:
  m_ObjectHideFlags: 0
  m_PrefabParentObject: {fileID: 100056, guid: 130cac6b96af6214296215324b5da188, type: 3}
  m_PrefabInternal: {fileID: 1275770332}
  serializedVersion: 4
  m_Component:
  - 4: {fileID: 1086872144}
  m_Layer: 0
  m_Name: nogaB_003_L
  m_TagString: Untagged
  m_Icon: {fileID: 0}
  m_NavMeshLayer: 0
  m_StaticEditorFlags: 0
  m_IsActive: 1
--- !u!4 &1086872144
Transform:
  m_ObjectHideFlags: 0
  m_PrefabParentObject: {fileID: 400056, guid: 130cac6b96af6214296215324b5da188, type: 3}
  m_PrefabInternal: {fileID: 1275770332}
  m_GameObject: {fileID: 1086872143}
  m_LocalRotation: {x: -.0144706378, y: .279364973, z: .0137966387, w: .959976792}
  m_LocalPosition: {x: -.406627804, y: 1.1118717e-07, z: 4.84287739e-08}
  m_LocalScale: {x: 1.00000024, y: 1, z: 1.00000024}
  m_Children:
  - {fileID: 53441764}
  m_Father: {fileID: 972427901}
  m_RootOrder: 0
--- !u!1 &1100040205
GameObject:
  m_ObjectHideFlags: 0
  m_PrefabParentObject: {fileID: 100048, guid: 130cac6b96af6214296215324b5da188, type: 3}
  m_PrefabInternal: {fileID: 1275770332}
  serializedVersion: 4
  m_Component:
  - 4: {fileID: 1100040206}
  m_Layer: 0
  m_Name: nogaB_001_L
  m_TagString: Untagged
  m_Icon: {fileID: 0}
  m_NavMeshLayer: 0
  m_StaticEditorFlags: 0
  m_IsActive: 1
--- !u!4 &1100040206
Transform:
  m_ObjectHideFlags: 0
  m_PrefabParentObject: {fileID: 400048, guid: 130cac6b96af6214296215324b5da188, type: 3}
  m_PrefabInternal: {fileID: 1275770332}
  m_GameObject: {fileID: 1100040205}
  m_LocalRotation: {x: -.0794369131, y: .136392161, z: .0855783671, w: .983749628}
  m_LocalPosition: {x: -.516167402, y: 7.73748141e-08, z: 1.37835741e-07}
  m_LocalScale: {x: 1, y: .999999762, z: .99999994}
  m_Children:
  - {fileID: 1851748317}
  m_Father: {fileID: 1055385593}
  m_RootOrder: 0
--- !u!1 &1149581685
GameObject:
  m_ObjectHideFlags: 0
  m_PrefabParentObject: {fileID: 100094, guid: 130cac6b96af6214296215324b5da188, type: 3}
  m_PrefabInternal: {fileID: 1275770332}
  serializedVersion: 4
  m_Component:
  - 4: {fileID: 1149581686}
  m_Layer: 0
  m_Name: nogaD_R
  m_TagString: Untagged
  m_Icon: {fileID: 0}
  m_NavMeshLayer: 0
  m_StaticEditorFlags: 0
  m_IsActive: 1
--- !u!4 &1149581686
Transform:
  m_ObjectHideFlags: 0
  m_PrefabParentObject: {fileID: 400094, guid: 130cac6b96af6214296215324b5da188, type: 3}
  m_PrefabInternal: {fileID: 1275770332}
  m_GameObject: {fileID: 1149581685}
  m_LocalRotation: {x: -.0297713727, y: .871513546, z: .175332457, w: -.456986189}
  m_LocalPosition: {x: -.730998576, y: 8.16608079e-08, z: 5.96046448e-08}
  m_LocalScale: {x: .999999821, y: .999999762, z: 1}
  m_Children: []
  m_Father: {fileID: 1645271834}
  m_RootOrder: 0
--- !u!1 &1158205925
GameObject:
  m_ObjectHideFlags: 0
  m_PrefabParentObject: {fileID: 100062, guid: 130cac6b96af6214296215324b5da188, type: 3}
  m_PrefabInternal: {fileID: 1275770332}
  serializedVersion: 4
  m_Component:
  - 4: {fileID: 1158205926}
  m_Layer: 0
  m_Name: nogaB_R
  m_TagString: Untagged
  m_Icon: {fileID: 0}
  m_NavMeshLayer: 0
  m_StaticEditorFlags: 0
  m_IsActive: 1
--- !u!4 &1158205926
Transform:
  m_ObjectHideFlags: 0
  m_PrefabParentObject: {fileID: 400062, guid: 130cac6b96af6214296215324b5da188, type: 3}
  m_PrefabInternal: {fileID: 1275770332}
  m_GameObject: {fileID: 1158205925}
  m_LocalRotation: {x: -.0533968732, y: .0650036931, z: .0354366973, w: .995825052}
  m_LocalPosition: {x: -.541414917, y: 1.13558642e-07, z: -1.1920929e-07}
  m_LocalScale: {x: .999999881, y: 1, z: 1}
  m_Children:
  - {fileID: 1645271834}
  m_Father: {fileID: 207872908}
  m_RootOrder: 0
--- !u!1 &1187370339
GameObject:
  m_ObjectHideFlags: 0
  m_PrefabParentObject: {fileID: 0}
  m_PrefabInternal: {fileID: 0}
  serializedVersion: 4
  m_Component:
  - 4: {fileID: 1187370344}
  - 20: {fileID: 1187370343}
  - 92: {fileID: 1187370342}
  - 124: {fileID: 1187370341}
  - 81: {fileID: 1187370340}
  m_Layer: 0
  m_Name: Main Camera
  m_TagString: MainCamera
  m_Icon: {fileID: 0}
  m_NavMeshLayer: 0
  m_StaticEditorFlags: 0
  m_IsActive: 1
--- !u!81 &1187370340
AudioListener:
  m_ObjectHideFlags: 0
  m_PrefabParentObject: {fileID: 0}
  m_PrefabInternal: {fileID: 0}
  m_GameObject: {fileID: 1187370339}
  m_Enabled: 1
--- !u!124 &1187370341
Behaviour:
  m_ObjectHideFlags: 0
  m_PrefabParentObject: {fileID: 0}
  m_PrefabInternal: {fileID: 0}
  m_GameObject: {fileID: 1187370339}
  m_Enabled: 1
--- !u!92 &1187370342
Behaviour:
  m_ObjectHideFlags: 0
  m_PrefabParentObject: {fileID: 0}
  m_PrefabInternal: {fileID: 0}
  m_GameObject: {fileID: 1187370339}
  m_Enabled: 1
--- !u!20 &1187370343
Camera:
  m_ObjectHideFlags: 0
  m_PrefabParentObject: {fileID: 0}
  m_PrefabInternal: {fileID: 0}
  m_GameObject: {fileID: 1187370339}
  m_Enabled: 1
  serializedVersion: 2
  m_ClearFlags: 1
  m_BackGroundColor: {r: .574626863, g: .625195742, b: 1, a: .0196078438}
  m_NormalizedViewPortRect:
    serializedVersion: 2
    x: 0
    y: 0
    width: 1
    height: 1
  near clip plane: .300000012
  far clip plane: 1000
  field of view: 60
  orthographic: 0
  orthographic size: 100
  m_Depth: -1
  m_CullingMask:
    serializedVersion: 2
    m_Bits: 4294967295
  m_RenderingPath: -1
  m_TargetTexture: {fileID: 0}
  m_TargetDisplay: 0
  m_HDR: 0
  m_OcclusionCulling: 1
  m_StereoConvergence: 10
  m_StereoSeparation: .0219999999
--- !u!4 &1187370344
Transform:
  m_ObjectHideFlags: 0
  m_PrefabParentObject: {fileID: 0}
  m_PrefabInternal: {fileID: 0}
  m_GameObject: {fileID: 1187370339}
  m_LocalRotation: {x: .130929306, y: 0, z: 0, w: .991391778}
  m_LocalPosition: {x: .447483063, y: 3.57910585, z: -9.73394871}
  m_LocalScale: {x: 1, y: 1, z: 1}
  m_Children: []
  m_Father: {fileID: 0}
  m_RootOrder: 1
--- !u!1001 &1275770332
Prefab:
  m_ObjectHideFlags: 0
  serializedVersion: 2
  m_Modification:
    m_TransformParent: {fileID: 0}
    m_Modifications:
    - target: {fileID: 400098, guid: 130cac6b96af6214296215324b5da188, type: 3}
      propertyPath: m_LocalPosition.x
      value: .962300718
      objectReference: {fileID: 0}
    - target: {fileID: 400098, guid: 130cac6b96af6214296215324b5da188, type: 3}
      propertyPath: m_LocalPosition.y
      value: .448238373
      objectReference: {fileID: 0}
    - target: {fileID: 400098, guid: 130cac6b96af6214296215324b5da188, type: 3}
      propertyPath: m_LocalPosition.z
      value: -3.33388972
      objectReference: {fileID: 0}
    - target: {fileID: 400098, guid: 130cac6b96af6214296215324b5da188, type: 3}
      propertyPath: m_LocalRotation.x
      value: -.0449547693
      objectReference: {fileID: 0}
    - target: {fileID: 400098, guid: 130cac6b96af6214296215324b5da188, type: 3}
      propertyPath: m_LocalRotation.y
      value: .434795409
      objectReference: {fileID: 0}
    - target: {fileID: 400098, guid: 130cac6b96af6214296215324b5da188, type: 3}
      propertyPath: m_LocalRotation.z
      value: -.0299069956
      objectReference: {fileID: 0}
    - target: {fileID: 400098, guid: 130cac6b96af6214296215324b5da188, type: 3}
      propertyPath: m_LocalRotation.w
      value: -.898909152
      objectReference: {fileID: 0}
    - target: {fileID: 11100000, guid: 130cac6b96af6214296215324b5da188, type: 3}
      propertyPath: m_Animation
      value: 
      objectReference: {fileID: 7400002, guid: 130cac6b96af6214296215324b5da188, type: 3}
    m_RemovedComponents: []
  m_ParentPrefab: {fileID: 100100000, guid: 130cac6b96af6214296215324b5da188, type: 3}
  m_RootGameObject: {fileID: 1816004843}
  m_IsPrefabParent: 0
  m_IsExploded: 1
--- !u!1 &1286619407
GameObject:
  m_ObjectHideFlags: 0
  m_PrefabParentObject: {fileID: 100090, guid: 130cac6b96af6214296215324b5da188, type: 3}
  m_PrefabInternal: {fileID: 1275770332}
  serializedVersion: 4
  m_Component:
  - 4: {fileID: 1286619408}
  m_Layer: 0
  m_Name: nogaD_003_R
  m_TagString: Untagged
  m_Icon: {fileID: 0}
  m_NavMeshLayer: 0
  m_StaticEditorFlags: 0
  m_IsActive: 1
--- !u!4 &1286619408
Transform:
  m_ObjectHideFlags: 0
  m_PrefabParentObject: {fileID: 400090, guid: 130cac6b96af6214296215324b5da188, type: 3}
  m_PrefabInternal: {fileID: 1275770332}
  m_GameObject: {fileID: 1286619407}
  m_LocalRotation: {x: -.0105432048, y: .91437906, z: .0430310033, w: -.402427763}
  m_LocalPosition: {x: -.568159938, y: -6.95814677e-08, z: 5.96046448e-08}
  m_LocalScale: {x: 1, y: 1.00000024, z: 1.00000012}
  m_Children: []
  m_Father: {fileID: 67438156}
  m_RootOrder: 0
--- !u!1 &1307162438
GameObject:
  m_ObjectHideFlags: 0
  m_PrefabParentObject: {fileID: 100042, guid: 130cac6b96af6214296215324b5da188, type: 3}
  m_PrefabInternal: {fileID: 1275770332}
  serializedVersion: 4
  m_Component:
  - 4: {fileID: 1307162439}
  m_Layer: 0
  m_Name: nogaA_003_R
  m_TagString: Untagged
  m_Icon: {fileID: 0}
  m_NavMeshLayer: 0
  m_StaticEditorFlags: 0
  m_IsActive: 1
--- !u!4 &1307162439
Transform:
  m_ObjectHideFlags: 0
  m_PrefabParentObject: {fileID: 400042, guid: 130cac6b96af6214296215324b5da188, type: 3}
  m_PrefabInternal: {fileID: 1275770332}
  m_GameObject: {fileID: 1307162438}
  m_LocalRotation: {x: -.554679751, y: .790784597, z: -.151512012, w: -.209843352}
  m_LocalPosition: {x: -.0993583202, y: .779729962, z: .356645584}
  m_LocalScale: {x: 1, y: 1.00000012, z: 1.00000012}
  m_Children:
  - {fileID: 835100978}
  m_Father: {fileID: 439255191}
  m_RootOrder: 6
--- !u!1 &1331142831
GameObject:
  m_ObjectHideFlags: 0
  m_PrefabParentObject: {fileID: 100002, guid: 130cac6b96af6214296215324b5da188, type: 3}
  m_PrefabInternal: {fileID: 1275770332}
  serializedVersion: 4
  m_Component:
  - 4: {fileID: 1331142832}
  m_Layer: 0
  m_Name: Bone_003
  m_TagString: Untagged
  m_Icon: {fileID: 0}
  m_NavMeshLayer: 0
  m_StaticEditorFlags: 0
  m_IsActive: 1
--- !u!4 &1331142832
Transform:
  m_ObjectHideFlags: 0
  m_PrefabParentObject: {fileID: 400002, guid: 130cac6b96af6214296215324b5da188, type: 3}
  m_PrefabInternal: {fileID: 1275770332}
  m_GameObject: {fileID: 1331142831}
  m_LocalRotation: {x: .274663538, y: 7.28382729e-05, z: .961540401, w: .000274021208}
  m_LocalPosition: {x: 2.97259248e-08, y: 1.80625648e-08, z: -2.31059943e-07}
  m_LocalScale: {x: 1, y: .99999994, z: 1}
  m_Children:
  - {fileID: 464247149}
  m_Father: {fileID: 439255191}
  m_RootOrder: 0
--- !u!1 &1428932570
GameObject:
  m_ObjectHideFlags: 0
  m_PrefabParentObject: {fileID: 100082, guid: 130cac6b96af6214296215324b5da188, type: 3}
  m_PrefabInternal: {fileID: 1275770332}
  serializedVersion: 4
  m_Component:
  - 4: {fileID: 1428932571}
  m_Layer: 0
  m_Name: nogaD_001_R
  m_TagString: Untagged
  m_Icon: {fileID: 0}
  m_NavMeshLayer: 0
  m_StaticEditorFlags: 0
  m_IsActive: 1
--- !u!4 &1428932571
Transform:
  m_ObjectHideFlags: 0
  m_PrefabParentObject: {fileID: 400082, guid: 130cac6b96af6214296215324b5da188, type: 3}
  m_PrefabInternal: {fileID: 1275770332}
  m_GameObject: {fileID: 1428932570}
  m_LocalRotation: {x: -.00313434075, y: -.834109068, z: .113457635, w: .539795935}
  m_LocalPosition: {x: -.515385747, y: -9.01402009e-10, z: 2.98023224e-08}
  m_LocalScale: {x: 1.00000012, y: .999999821, z: 1.00000012}
  m_Children: []
  m_Father: {fileID: 1907557226}
  m_RootOrder: 0
--- !u!1 &1458194636
GameObject:
  m_ObjectHideFlags: 0
  m_PrefabParentObject: {fileID: 100008, guid: 130cac6b96af6214296215324b5da188, type: 3}
  m_PrefabInternal: {fileID: 1275770332}
  serializedVersion: 4
  m_Component:
  - 4: {fileID: 1458194637}
  m_Layer: 0
  m_Name: IKnoga_001_L
  m_TagString: Untagged
  m_Icon: {fileID: 0}
  m_NavMeshLayer: 0
  m_StaticEditorFlags: 0
  m_IsActive: 1
--- !u!4 &1458194637
Transform:
  m_ObjectHideFlags: 0
  m_PrefabParentObject: {fileID: 400008, guid: 130cac6b96af6214296215324b5da188, type: 3}
  m_PrefabInternal: {fileID: 1275770332}
  m_GameObject: {fileID: 1458194636}
  m_LocalRotation: {x: .112074487, y: -.429141909, z: .226470038, w: .86717236}
  m_LocalPosition: {x: -1.49941242, y: -.958647966, z: .718932092}
  m_LocalScale: {x: .999999821, y: .999999881, z: .999999881}
  m_Children: []
  m_Father: {fileID: 2039135040}
  m_RootOrder: 0
--- !u!1 &1479640369
GameObject:
  m_ObjectHideFlags: 0
  m_PrefabParentObject: {fileID: 100102, guid: 130cac6b96af6214296215324b5da188, type: 3}
  m_PrefabInternal: {fileID: 1275770332}
  serializedVersion: 4
  m_Component:
  - 4: {fileID: 1479640370}
  m_Layer: 0
  m_Name: zubA_L
  m_TagString: Untagged
  m_Icon: {fileID: 0}
  m_NavMeshLayer: 0
  m_StaticEditorFlags: 0
  m_IsActive: 1
--- !u!4 &1479640370
Transform:
  m_ObjectHideFlags: 0
  m_PrefabParentObject: {fileID: 400102, guid: 130cac6b96af6214296215324b5da188, type: 3}
  m_PrefabInternal: {fileID: 1275770332}
  m_GameObject: {fileID: 1479640369}
  m_LocalRotation: {x: .00708722137, y: -.0146544091, z: -.125318229, w: .991983056}
  m_LocalPosition: {x: -.815559506, y: .430184305, z: -.0560846068}
  m_LocalScale: {x: 1, y: 1, z: .999999821}
  m_Children:
  - {fileID: 297201030}
  m_Father: {fileID: 1833461981}
  m_RootOrder: 2
--- !u!1 &1540893345
GameObject:
  m_ObjectHideFlags: 0
  m_PrefabParentObject: {fileID: 100080, guid: 130cac6b96af6214296215324b5da188, type: 3}
  m_PrefabInternal: {fileID: 1275770332}
  serializedVersion: 4
  m_Component:
  - 4: {fileID: 1540893346}
  m_Layer: 0
  m_Name: nogaD_001_L
  m_TagString: Untagged
  m_Icon: {fileID: 0}
  m_NavMeshLayer: 0
  m_StaticEditorFlags: 0
  m_IsActive: 1
--- !u!4 &1540893346
Transform:
  m_ObjectHideFlags: 0
  m_PrefabParentObject: {fileID: 400080, guid: 130cac6b96af6214296215324b5da188, type: 3}
  m_PrefabInternal: {fileID: 1275770332}
  m_GameObject: {fileID: 1540893345}
  m_LocalRotation: {x: .0031341149, y: -.834108949, z: -.113457665, w: .539796114}
  m_LocalPosition: {x: -.515385747, y: 4.30210569e-08, z: -1.78813934e-07}
  m_LocalScale: {x: 1, y: .999999762, z: 1}
  m_Children: []
  m_Father: {fileID: 1851748317}
  m_RootOrder: 0
--- !u!1 &1645271833
GameObject:
  m_ObjectHideFlags: 0
  m_PrefabParentObject: {fileID: 100078, guid: 130cac6b96af6214296215324b5da188, type: 3}
  m_PrefabInternal: {fileID: 1275770332}
  serializedVersion: 4
  m_Component:
  - 4: {fileID: 1645271834}
  m_Layer: 0
  m_Name: nogaC_R
  m_TagString: Untagged
  m_Icon: {fileID: 0}
  m_NavMeshLayer: 0
  m_StaticEditorFlags: 0
  m_IsActive: 1
--- !u!4 &1645271834
Transform:
  m_ObjectHideFlags: 0
  m_PrefabParentObject: {fileID: 400078, guid: 130cac6b96af6214296215324b5da188, type: 3}
  m_PrefabInternal: {fileID: 1275770332}
  m_GameObject: {fileID: 1645271833}
  m_LocalRotation: {x: .00786524173, y: .102803387, z: -.00349111133, w: .99466449}
  m_LocalPosition: {x: -.560297847, y: 4.15713117e-08, z: -1.1920929e-07}
  m_LocalScale: {x: .999999881, y: .999999702, z: .999999881}
  m_Children:
  - {fileID: 1149581686}
  m_Father: {fileID: 1158205926}
  m_RootOrder: 0
--- !u!1 &1725622940
GameObject:
  m_ObjectHideFlags: 0
  m_PrefabParentObject: {fileID: 100104, guid: 130cac6b96af6214296215324b5da188, type: 3}
  m_PrefabInternal: {fileID: 1275770332}
  serializedVersion: 4
  m_Component:
  - 4: {fileID: 1725622941}
  m_Layer: 0
  m_Name: zubA_R
  m_TagString: Untagged
  m_Icon: {fileID: 0}
  m_NavMeshLayer: 0
  m_StaticEditorFlags: 0
  m_IsActive: 1
--- !u!4 &1725622941
Transform:
  m_ObjectHideFlags: 0
  m_PrefabParentObject: {fileID: 400104, guid: 130cac6b96af6214296215324b5da188, type: 3}
  m_PrefabInternal: {fileID: 1275770332}
  m_GameObject: {fileID: 1725622940}
  m_LocalRotation: {x: -.00708737317, y: -.0146543896, z: .125318229, w: .991983056}
  m_LocalPosition: {x: -.815559626, y: -.430184245, z: -.0560844801}
  m_LocalScale: {x: 1, y: 1, z: .999999821}
  m_Children:
  - {fileID: 861839205}
  m_Father: {fileID: 1833461981}
  m_RootOrder: 3
--- !u!1 &1816004843
GameObject:
  m_ObjectHideFlags: 0
  m_PrefabParentObject: {fileID: 100098, guid: 130cac6b96af6214296215324b5da188, type: 3}
  m_PrefabInternal: {fileID: 1275770332}
  serializedVersion: 4
  m_Component:
  - 4: {fileID: 1816004844}
  - 111: {fileID: 1816004845}
  m_Layer: 0
  m_Name: SPIDER
  m_TagString: Untagged
  m_Icon: {fileID: 0}
  m_NavMeshLayer: 0
  m_StaticEditorFlags: 0
  m_IsActive: 1
--- !u!4 &1816004844
Transform:
  m_ObjectHideFlags: 0
  m_PrefabParentObject: {fileID: 400098, guid: 130cac6b96af6214296215324b5da188, type: 3}
  m_PrefabInternal: {fileID: 1275770332}
  m_GameObject: {fileID: 1816004843}
  m_LocalRotation: {x: -.0449547693, y: .434795409, z: -.0299069956, w: -.898909152}
  m_LocalPosition: {x: .962300718, y: .448238373, z: -3.33388972}
  m_LocalScale: {x: 1, y: 1, z: 1}
  m_Children:
  - {fileID: 2039135040}
  - {fileID: 380521205}
  m_Father: {fileID: 0}
  m_RootOrder: 3
--- !u!111 &1816004845
Animation:
  m_ObjectHideFlags: 0
  m_PrefabParentObject: {fileID: 11100000, guid: 130cac6b96af6214296215324b5da188,
    type: 3}
  m_PrefabInternal: {fileID: 1275770332}
  m_GameObject: {fileID: 1816004843}
  m_Enabled: 1
  serializedVersion: 3
  m_Animation: {fileID: 7400002, guid: 130cac6b96af6214296215324b5da188, type: 3}
  m_Animations:
  - {fileID: 7400002, guid: 130cac6b96af6214296215324b5da188, type: 3}
  - {fileID: 7400004, guid: 130cac6b96af6214296215324b5da188, type: 3}
  - {fileID: 7400006, guid: 130cac6b96af6214296215324b5da188, type: 3}
  - {fileID: 7400008, guid: 130cac6b96af6214296215324b5da188, type: 3}
  - {fileID: 7400010, guid: 130cac6b96af6214296215324b5da188, type: 3}
  - {fileID: 7400012, guid: 130cac6b96af6214296215324b5da188, type: 3}
  - {fileID: 7400014, guid: 130cac6b96af6214296215324b5da188, type: 3}
  m_WrapMode: 0
  m_PlayAutomatically: 1
  m_AnimatePhysics: 0
  m_CullingType: 1
--- !u!1 &1833461980
GameObject:
  m_ObjectHideFlags: 0
  m_PrefabParentObject: {fileID: 100006, guid: 130cac6b96af6214296215324b5da188, type: 3}
  m_PrefabInternal: {fileID: 1275770332}
  serializedVersion: 4
  m_Component:
  - 4: {fileID: 1833461981}
  m_Layer: 0
  m_Name: Head
  m_TagString: Untagged
  m_Icon: {fileID: 0}
  m_NavMeshLayer: 0
  m_StaticEditorFlags: 0
  m_IsActive: 1
--- !u!4 &1833461981
Transform:
  m_ObjectHideFlags: 0
  m_PrefabParentObject: {fileID: 400006, guid: 130cac6b96af6214296215324b5da188, type: 3}
  m_PrefabInternal: {fileID: 1275770332}
  m_GameObject: {fileID: 1833461980}
  m_LocalRotation: {x: 1.79568403e-07, y: -.170694008, z: 7.56622143e-09, w: .985324085}
  m_LocalPosition: {x: -.280084491, y: 2.11457749e-08, z: 1.49011612e-08}
  m_LocalScale: {x: 1, y: 1, z: 1}
  m_Children:
  - {fileID: 1854715607}
  - {fileID: 539622128}
  - {fileID: 1479640370}
  - {fileID: 1725622941}
  m_Father: {fileID: 39126809}
  m_RootOrder: 0
--- !u!1 &1851748316
GameObject:
  m_ObjectHideFlags: 0
  m_PrefabParentObject: {fileID: 100064, guid: 130cac6b96af6214296215324b5da188, type: 3}
  m_PrefabInternal: {fileID: 1275770332}
  serializedVersion: 4
  m_Component:
  - 4: {fileID: 1851748317}
  m_Layer: 0
  m_Name: nogaC_001_L
  m_TagString: Untagged
  m_Icon: {fileID: 0}
  m_NavMeshLayer: 0
  m_StaticEditorFlags: 0
  m_IsActive: 1
--- !u!4 &1851748317
Transform:
  m_ObjectHideFlags: 0
  m_PrefabParentObject: {fileID: 400064, guid: 130cac6b96af6214296215324b5da188, type: 3}
  m_PrefabInternal: {fileID: 1275770332}
  m_GameObject: {fileID: 1851748316}
  m_LocalRotation: {x: -.0785668418, y: .0686644763, z: .0555923469, w: .992986381}
  m_LocalPosition: {x: -.405179381, y: -4.89310032e-08, z: 1.49011612e-08}
  m_LocalScale: {x: .99999994, y: 1.00000012, z: 1}
  m_Children:
  - {fileID: 1540893346}
  m_Father: {fileID: 1100040206}
  m_RootOrder: 0
--- !u!1 &1854715606
GameObject:
  m_ObjectHideFlags: 0
  m_PrefabParentObject: {fileID: 100024, guid: 130cac6b96af6214296215324b5da188, type: 3}
  m_PrefabInternal: {fileID: 1275770332}
  serializedVersion: 4
  m_Component:
  - 4: {fileID: 1854715607}
  m_Layer: 0
  m_Name: IKzub_L
  m_TagString: Untagged
  m_Icon: {fileID: 0}
  m_NavMeshLayer: 0
  m_StaticEditorFlags: 0
  m_IsActive: 1
--- !u!4 &1854715607
Transform:
  m_ObjectHideFlags: 0
  m_PrefabParentObject: {fileID: 400024, guid: 130cac6b96af6214296215324b5da188, type: 3}
  m_PrefabInternal: {fileID: 1275770332}
  m_GameObject: {fileID: 1854715606}
  m_LocalRotation: {x: -.00236453698, y: -.0595155805, z: .420437276, w: .905364454}
  m_LocalPosition: {x: -1.20289147, y: .527465761, z: -.0245703664}
  m_LocalScale: {x: 1.00000012, y: .999999881, z: 1.00000012}
  m_Children: []
  m_Father: {fileID: 1833461981}
  m_RootOrder: 0
--- !u!1 &1890505897
GameObject:
  m_ObjectHideFlags: 0
  m_PrefabParentObject: {fileID: 100014, guid: 130cac6b96af6214296215324b5da188, type: 3}
  m_PrefabInternal: {fileID: 1275770332}
  serializedVersion: 4
  m_Component:
  - 4: {fileID: 1890505898}
  m_Layer: 0
  m_Name: IKnoga_002_R
  m_TagString: Untagged
  m_Icon: {fileID: 0}
  m_NavMeshLayer: 0
  m_StaticEditorFlags: 0
  m_IsActive: 1
--- !u!4 &1890505898
Transform:
  m_ObjectHideFlags: 0
  m_PrefabParentObject: {fileID: 400014, guid: 130cac6b96af6214296215324b5da188, type: 3}
  m_PrefabInternal: {fileID: 1275770332}
  m_GameObject: {fileID: 1890505897}
  m_LocalRotation: {x: .540364444, y: .0410852917, z: .838008702, w: -.0637163669}
  m_LocalPosition: {x: 1.59661138, y: .0126149692, z: .773449302}
  m_LocalScale: {x: .999999821, y: .999999702, z: .999999821}
  m_Children: []
  m_Father: {fileID: 2039135040}
  m_RootOrder: 3
--- !u!1 &1907557225
GameObject:
  m_ObjectHideFlags: 0
  m_PrefabParentObject: {fileID: 100066, guid: 130cac6b96af6214296215324b5da188, type: 3}
  m_PrefabInternal: {fileID: 1275770332}
  serializedVersion: 4
  m_Component:
  - 4: {fileID: 1907557226}
  m_Layer: 0
  m_Name: nogaC_001_R
  m_TagString: Untagged
  m_Icon: {fileID: 0}
  m_NavMeshLayer: 0
  m_StaticEditorFlags: 0
  m_IsActive: 1
--- !u!4 &1907557226
Transform:
  m_ObjectHideFlags: 0
  m_PrefabParentObject: {fileID: 400066, guid: 130cac6b96af6214296215324b5da188, type: 3}
  m_PrefabInternal: {fileID: 1275770332}
  m_GameObject: {fileID: 1907557225}
  m_LocalRotation: {x: .0785669386, y: .068664439, z: -.0555923469, w: .992986381}
  m_LocalPosition: {x: -.405179292, y: 2.2432971e-08, z: 7.4505806e-08}
  m_LocalScale: {x: .999999881, y: .99999994, z: .999999702}
  m_Children:
  - {fileID: 1428932571}
  m_Father: {fileID: 181105175}
  m_RootOrder: 0
--- !u!1 &1916504286
GameObject:
  m_ObjectHideFlags: 0
  m_PrefabParentObject: {fileID: 100020, guid: 130cac6b96af6214296215324b5da188, type: 3}
  m_PrefabInternal: {fileID: 1275770332}
  serializedVersion: 4
  m_Component:
  - 4: {fileID: 1916504287}
  m_Layer: 0
  m_Name: IKnoga_L
  m_TagString: Untagged
  m_Icon: {fileID: 0}
  m_NavMeshLayer: 0
  m_StaticEditorFlags: 0
  m_IsActive: 1
--- !u!4 &1916504287
Transform:
  m_ObjectHideFlags: 0
  m_PrefabParentObject: {fileID: 400020, guid: 130cac6b96af6214296215324b5da188, type: 3}
  m_PrefabInternal: {fileID: 1275770332}
  m_GameObject: {fileID: 1916504286}
  m_LocalRotation: {x: .222184986, y: -.379580796, z: .453679562, w: .775065899}
  m_LocalPosition: {x: -1.2139039, y: -1.56386924, z: 1.85883558}
  m_LocalScale: {x: .999999762, y: .999999881, z: .99999994}
  m_Children: []
  m_Father: {fileID: 2039135040}
  m_RootOrder: 6
--- !u!1 &2039135039
GameObject:
  m_ObjectHideFlags: 0
  m_PrefabParentObject: {fileID: 100000, guid: 130cac6b96af6214296215324b5da188, type: 3}
  m_PrefabInternal: {fileID: 1275770332}
  serializedVersion: 4
  m_Component:
  - 4: {fileID: 2039135040}
  m_Layer: 0
  m_Name: Armature
  m_TagString: Untagged
  m_Icon: {fileID: 0}
  m_NavMeshLayer: 0
  m_StaticEditorFlags: 0
  m_IsActive: 1
--- !u!4 &2039135040
Transform:
  m_ObjectHideFlags: 0
  m_PrefabParentObject: {fileID: 400000, guid: 130cac6b96af6214296215324b5da188, type: 3}
  m_PrefabInternal: {fileID: 1275770332}
  m_GameObject: {fileID: 2039135039}
  m_LocalRotation: {x: -.707106829, y: 0, z: -0, w: .707106709}
  m_LocalPosition: {x: 0, y: 1.13667846, z: 0}
  m_LocalScale: {x: 1, y: 1, z: 1}
  m_Children:
  - {fileID: 1458194637}
  - {fileID: 794483753}
  - {fileID: 629468435}
  - {fileID: 1890505898}
  - {fileID: 139163364}
  - {fileID: 350455473}
  - {fileID: 1916504287}
  - {fileID: 253429094}
  - {fileID: 189970953}
  m_Father: {fileID: 1816004844}
  m_RootOrder: 0
--- !u!1 &2091776206
GameObject:
  m_ObjectHideFlags: 0
  m_PrefabParentObject: {fileID: 100054, guid: 130cac6b96af6214296215324b5da188, type: 3}
  m_PrefabInternal: {fileID: 1275770332}
  serializedVersion: 4
  m_Component:
  - 4: {fileID: 2091776207}
  m_Layer: 0
  m_Name: nogaB_002_R
  m_TagString: Untagged
  m_Icon: {fileID: 0}
  m_NavMeshLayer: 0
  m_StaticEditorFlags: 0
  m_IsActive: 1
--- !u!4 &2091776207
Transform:
  m_ObjectHideFlags: 0
  m_PrefabParentObject: {fileID: 400054, guid: 130cac6b96af6214296215324b5da188, type: 3}
  m_PrefabInternal: {fileID: 1275770332}
  m_GameObject: {fileID: 2091776206}
  m_LocalRotation: {x: .013537447, y: .180422783, z: -.0161573198, w: .983363271}
  m_LocalPosition: {x: -.4029392, y: 2.79928525e-08, z: -4.64497134e-08}
  m_LocalScale: {x: 1, y: .999999881, z: 1}
  m_Children:
  - {fileID: 464753837}
  m_Father: {fileID: 1029162330}
  m_RootOrder: 0
--- !u!1 &2118350388
GameObject:
  m_ObjectHideFlags: 0
  m_PrefabParentObject: {fileID: 100084, guid: 130cac6b96af6214296215324b5da188, type: 3}
  m_PrefabInternal: {fileID: 1275770332}
  serializedVersion: 4
  m_Component:
  - 4: {fileID: 2118350389}
  m_Layer: 0
  m_Name: nogaD_002_L
  m_TagString: Untagged
  m_Icon: {fileID: 0}
  m_NavMeshLayer: 0
  m_StaticEditorFlags: 0
  m_IsActive: 1
--- !u!4 &2118350389
Transform:
  m_ObjectHideFlags: 0
  m_PrefabParentObject: {fileID: 400084, guid: 130cac6b96af6214296215324b5da188, type: 3}
  m_PrefabInternal: {fileID: 1275770332}
  m_GameObject: {fileID: 2118350388}
  m_LocalRotation: {x: -.0049853283, y: .92380929, z: .0397197679, w: -.380754411}
  m_LocalPosition: {x: -.512814701, y: 3.79634173e-08, z: -1.14407158e-07}
  m_LocalScale: {x: .999999881, y: 1.00000012, z: .999999881}
  m_Children: []
  m_Father: {fileID: 392690241}
  m_RootOrder: 0
--- !u!1 &2124718904
GameObject:
  m_ObjectHideFlags: 0
  m_PrefabParentObject: {fileID: 100060, guid: 130cac6b96af6214296215324b5da188, type: 3}
  m_PrefabInternal: {fileID: 1275770332}
  serializedVersion: 4
  m_Component:
  - 4: {fileID: 2124718905}
  m_Layer: 0
  m_Name: nogaB_L
  m_TagString: Untagged
  m_Icon: {fileID: 0}
  m_NavMeshLayer: 0
  m_StaticEditorFlags: 0
  m_IsActive: 1
--- !u!4 &2124718905
Transform:
  m_ObjectHideFlags: 0
  m_PrefabParentObject: {fileID: 400060, guid: 130cac6b96af6214296215324b5da188, type: 3}
  m_PrefabInternal: {fileID: 1275770332}
  m_GameObject: {fileID: 2124718904}
  m_LocalRotation: {x: .0533967987, y: .0650036633, z: -.0354367383, w: .995825112}
  m_LocalPosition: {x: -.541414857, y: 7.50779492e-08, z: 2.98023224e-08}
  m_LocalScale: {x: 1, y: 1.00000012, z: 1.00000024}
  m_Children:
  - {fileID: 1005574106}
  m_Father: {fileID: 580519535}
  m_RootOrder: 0
